…
    `summarise()` has grouped output by 'id.orig_h'. You can override using the
    `.groups` argument.

``` r
print("Подозрительные IP с периодическими запросами:")
```

    [1] "Подозрительные IP с периодическими запросами:"

``` r
print(periodic_ips)
```

    # A tibble: 238 × 5
    # Groups:   id.orig_h [197]
       id.orig_h                          query request_count time_span avg_interval
       <chr>                              <chr>         <int>     <dbl>        <dbl>
     1 192.168.202.148                    1                 8  1.000e-2      0.00143
     2 192.168.95.166                     1                18  1.51 e+0      0.0888 
     3 192.168.202.108                    -               235  2.54 e+1      0.108  
     4 2001:dbb:c18:202:d4bc:e39f:84ad:5… 1                63  9.46 e+0      0.153  
     5 169.254.228.26                     1                24  3.75 e+0      0.163  
     6 10.10.117.210                      1             75943  1.26 e+4      0.166  
     7 192.168.100.130                    1                 6  1.35 e+0      0.270  
     8 192.168.202.146                    1                28  8.27 e+0      0.306  
     9 192.168.202.157                    1              1491  5.41 e+2      0.363  
    10 192.168.202.128                    1                94  3.43 e+1      0.368  
    # ℹ 228 more rows
…
