…
``` r
#Задание 5: Определение небезопасных точек доступа
unsafe_aps <- wifi_ap_data %>%
  filter(privacy == "OPN")

print(unsafe_aps)
```

    # A tibble: 42 × 15
       bssid    first_time_seen     last_time_seen      channel speed privacy cipher
       <chr>    <dttm>              <dttm>                <dbl> <dbl> <chr>   <chr> 
     1 E8:28:C… 2023-07-28 09:13:03 2023-07-28 11:55:38       6   130 OPN     <NA>  
     2 E8:28:C… 2023-07-28 09:13:06 2023-07-28 11:55:12       6   130 OPN     <NA>  
     3 E8:28:C… 2023-07-28 09:13:06 2023-07-28 11:55:11       6   130 OPN     <NA>  
     4 E8:28:C… 2023-07-28 09:13:06 2023-07-28 11:55:10       6    -1 OPN     <NA>  
     5 00:25:0… 2023-07-28 09:13:06 2023-07-28 11:56:21      44    -1 OPN     <NA>  
     6 E8:28:C… 2023-07-28 09:13:09 2023-07-28 11:56:05      11   130 OPN     <NA>  
     7 E8:28:C… 2023-07-28 09:13:13 2023-07-28 10:27:06       6   130 OPN     <NA>  
     8 E8:28:C… 2023-07-28 09:13:13 2023-07-28 10:39:43       6   130 OPN     <NA>  
     9 E8:28:C… 2023-07-28 09:13:17 2023-07-28 11:52:32       1   130 OPN     <NA>  
    10 E8:28:C… 2023-07-28 09:13:50 2023-07-28 11:43:39      11   130 OPN     <NA>  
    # ℹ 32 more rows
    # ℹ 8 more variables: authentication <chr>, power <dbl>, number_beacons <dbl>,
    #   number_iv <dbl>, lan_ip <chr>, id_length <dbl>, essid <chr>, key <chr>
…
wifi_ap_data_with_manuf <- wifi_ap_data %>%
  mutate(
    oui = ifelse(is.na(bssid) | bssid == "", NA_character_, substr(bssid, 1, 8))
  ) %>%
  left_join(
    manufacturer_lookup_table,
    by = c("oui" = "oui")
  ) %>%
  select(-oui) %>%
  relocate(manufacturer, .after = bssid)
wifi_ap_data <- wifi_ap_data_with_manuf
print(wifi_ap_data)
```

    # A tibble: 167 × 16
       bssid      manufacturer first_time_seen     last_time_seen      channel speed
       <chr>      <chr>        <dttm>              <dttm>                <dbl> <dbl>
     1 BE:F1:71:… <NA>         2023-07-28 09:13:03 2023-07-28 11:50:50       1   195
     2 6E:C7:EC:… <NA>         2023-07-28 09:13:03 2023-07-28 11:55:12       1   130
     3 9A:75:A8:… <NA>         2023-07-28 09:13:03 2023-07-28 11:53:31       1   360
     4 4A:EC:1E:… <NA>         2023-07-28 09:13:03 2023-07-28 11:04:01       7   360
     5 D2:6D:52:… <NA>         2023-07-28 09:13:03 2023-07-28 10:30:19       6   130
     6 E8:28:C1:… Eltex Enter… 2023-07-28 09:13:03 2023-07-28 11:55:38       6   130
     7 BE:F1:71:… <NA>         2023-07-28 09:13:03 2023-07-28 11:50:44      11   195
     8 0A:C5:E1:… <NA>         2023-07-28 09:13:03 2023-07-28 11:36:31      11   130
     9 38:1A:52:… Seiko Epson… 2023-07-28 09:13:03 2023-07-28 10:25:02      11   130
    10 BE:F1:71:… <NA>         2023-07-28 09:13:03 2023-07-28 10:29:21       1   195
    # ℹ 157 more rows
    # ℹ 10 more variables: privacy <chr>, cipher <chr>, authentication <chr>,
    #   power <dbl>, number_beacons <dbl>, number_iv <dbl>, lan_ip <chr>,
    #   id_length <dbl>, essid <chr>, key <chr>
…
    Warning: There were 168 warnings in `summarise()`.
    The first warning was:
    ℹ In argument: `sessions_data = list(join_sessions(cur_data()))`.
    ℹ In group 1: `bssid = "00:00:00:00:00:00"`.
    Caused by warning:
    ! `cur_data()` was deprecated in dplyr 1.1.0.
    ℹ Please use `pick()` instead.
    ℹ Run `dplyr::last_dplyr_warnings()` to see the 167 remaining warnings.

``` r
print(wifi_ap_sorted_by_duration)
```

    # A tibble: 167 × 2
       bssid             total_time_on_channel_seconds
       <chr>                                     <dbl>
     1 00:25:00:FF:94:73                         19590
     2 E8:28:C1:DD:04:52                         19552
     3 E8:28:C1:DC:B2:52                         19510
     4 08:3A:2F:56:35:FE                         19492
     5 6E:C7:EC:16:DA:1A                         19458
     6 E8:28:C1:DC:B2:50                         19452
     7 48:5B:39:F9:7A:48                         19450
     8 E8:28:C1:DC:B2:51                         19450
     9 E8:28:C1:DC:FF:F2                         19448
    10 8E:55:4A:85:5B:01                         19446
    # ℹ 157 more rows
…
  mutate(
    time_diff_seconds = as.numeric(difftime(last_time_seen, first_time_seen, units = "secs")),
    beacon_frequency = ifelse(
      is.na(time_diff_seconds) | time_diff_seconds == 0,
      NA_real_,
      number_beacons / time_diff_seconds
    )
  ) %>%
  filter(!is.na(beacon_frequency))
wifi_ap_sorted_by_beacon_freq <- wifi_ap_with_beacon_freq %>%
  arrange(desc(beacon_frequency))
print(select(wifi_ap_sorted_by_beacon_freq, bssid, essid, number_beacons, time_diff_seconds, beacon_frequency))
```

    # A tibble: 124 × 5
       bssid             essid     number_beacons time_diff_seconds beacon_frequency
       <chr>             <chr>              <dbl>             <dbl>            <dbl>
     1 F2:30:AB:E9:03:ED "iPhone …              6                 7            0.857
     2 B2:CF:C0:00:4A:60 "Михаил'…              4                 5            0.8  
     3 3A:DA:00:F9:0C:02 "iPhone …              5                 9            0.556
     4 02:BC:15:7E:D5:DC "MT_FREE"              1                 2            0.5  
     5 00:3E:1A:5D:14:45 "MT_FREE"              1                 2            0.5  
     6 76:C5:A0:70:08:96  <NA>                  1                 2            0.5  
     7 D2:25:91:F6:6C:D8 "Саня"                 5                13            0.385
     8 BE:F1:71:D6:10:D7 "C322U21…           1647              9461            0.174
     9 00:03:7A:1A:03:56 "MT_FREE"              1                 6            0.167
    10 38:1A:52:0D:84:D7 "EBFCD57…            704              4319            0.163
    # ℹ 114 more rows
…
wifi_station_clustered <- wifi_station_data %>%
  filter(bssid != "(not associated)") %>%
  group_by(bssid) %>%
  summarise(
    cluster_appeared = min(first_time_seen, na.rm = TRUE),
    cluster_disappeared = max(last_time_seen, na.rm = TRUE),
    unique_clients_count = n_distinct(station_mac),
    total_observations = n(),
    .groups = 'drop'
  ) %>%
  arrange(cluster_appeared)
print(wifi_station_clustered)
```

    # A tibble: 74 × 5
       bssid            cluster_appeared    cluster_disappeared unique_clients_count
       <chr>            <dttm>              <dttm>                             <int>
     1 BE:F1:71:D5:17:… 2023-07-28 09:13:03 2023-07-28 11:53:16                    2
     2 BE:F1:71:D6:10:… 2023-07-28 09:13:03 2023-07-28 11:51:54                    1
     3 00:25:00:FF:94:… 2023-07-28 09:13:06 2023-07-28 11:56:21                   45
     4 00:26:99:F2:7A:… 2023-07-28 09:13:06 2023-07-28 11:55:30                    8
     5 1E:93:E3:1B:3C:… 2023-07-28 09:13:06 2023-07-28 11:50:50                    3
     6 E8:28:C1:DC:FF:… 2023-07-28 09:13:06 2023-07-28 11:55:10                    3
     7 0C:80:63:A9:6E:… 2023-07-28 09:13:08 2023-07-28 11:53:36                    2
     8 0A:C5:E1:DB:17:… 2023-07-28 09:13:09 2023-07-28 11:34:42                    1
     9 E8:28:C1:DD:04:… 2023-07-28 09:13:09 2023-07-28 11:55:51                    4
    10 9A:75:A8:B9:04:… 2023-07-28 09:13:14 2023-07-28 11:51:50                    1
    # ℹ 64 more rows
    # ℹ 1 more variable: total_observations <int>
…
    mean_power = mean(power, na.rm = TRUE),
    sd_power = sd(power, na.rm = TRUE),
    observation_count = n(),
    .groups = 'drop'
  )
cluster_stability_sorted <- cluster_stability_raw %>%
  arrange(sd_power) %>%
  mutate(
    stability_measure = 1 / (1 + sd_power)
  ) %>%
  select(bssid, everything())
print(cluster_stability_sorted)
```

    # A tibble: 74 × 5
       bssid             mean_power sd_power observation_count stability_measure
       <chr>                  <dbl>    <dbl>             <int>             <dbl>
     1 86:DF:BF:E4:2F:23      -71       0                    2             1    
     2 E8:28:C1:DC:C8:32       -1       0                    2             1    
     3 E8:28:C1:DC:FF:F2      -73       2                    3             0.333
     4 CE:B3:FF:84:45:FC      -85       2.83                 2             0.261
     5 E8:28:C1:DD:04:40      -61       2.83                 2             0.261
     6 8E:55:4A:85:5B:01      -50.3     4.13                 6             0.195
     7 00:26:99:F2:7A:E2      -64.2     4.40                 8             0.185
     8 E8:28:C1:DC:B2:50      -59.8     5.22                 5             0.161
     9 E8:28:C1:DC:F0:90      -63.7     6.11                 3             0.141
    10 00:25:00:FF:94:73      -71.2     6.51                45             0.133
    # ℹ 64 more rows
…
